{
    "Name": "f5xc-azure-role",
    "IsCustom": true,
    "Description": "F5XC Custom Role to create Azure VNET site",
    "AssignableScopes": [
        "/subscriptions/$SUBSCRIPTION_ID"
    ],
    "Actions": [
        "*/read",
        "*/register/action",
        "Microsoft.Authorization/roleAssignments/*",
        "Microsoft.Compute/disks/delete",
        "Microsoft.Compute/virtualMachineScaleSets/delete",
        "Microsoft.Compute/virtualMachineScaleSets/write",
        "Microsoft.Compute/virtualMachines/delete",
        "Microsoft.Compute/virtualMachines/write",
        "Microsoft.Marketplace/offerTypes/publishers/offers/plans/agreements/*",
        "Microsoft.MarketplaceOrdering/agreements/offers/plans/cancel/action",
        "Microsoft.MarketplaceOrdering/offerTypes/publishers/offers/plans/agreements/write",
        "Microsoft.Network/loadBalancers/*",
        "Microsoft.Network/locations/setLoadBalancerFrontendPublicIpAddresses/action",
        "Microsoft.Network/networkInterfaces/*",
        "Microsoft.Network/networkSecurityGroups/delete",
        "Microsoft.Network/networkSecurityGroups/join/action",
        "Microsoft.Network/networkSecurityGroups/securityRules/delete",
        "Microsoft.Network/networkSecurityGroups/securityRules/write",
        "Microsoft.Network/networkSecurityGroups/write",
        "Microsoft.Network/publicIPAddresses/delete",
        "Microsoft.Network/publicIPAddresses/join/action",
        "Microsoft.Network/publicIPAddresses/write",
        "Microsoft.Network/routeTables/delete",
        "Microsoft.Network/routeTables/join/action",
        "Microsoft.Network/routeTables/write",
        "Microsoft.Network/virtualHubs/delete",
        "Microsoft.Network/virtualHubs/bgpConnections/delete",
        "Microsoft.Network/virtualHubs/bgpConnections/read",
        "Microsoft.Network/virtualHubs/bgpConnections/write",
        "Microsoft.Network/virtualHubs/ipConfigurations/delete",
        "Microsoft.Network/virtualHubs/ipConfigurations/read",
        "Microsoft.Network/virtualHubs/ipConfigurations/write",
        "Microsoft.Network/virtualHubs/read",
        "Microsoft.Network/virtualHubs/write",
        "Microsoft.Network/virtualNetworks/delete",
        "Microsoft.Network/virtualNetworks/peer/action",
        "Microsoft.Network/virtualNetworks/subnets/*",
        "Microsoft.Network/virtualNetworks/virtualNetworkPeerings/write",
        "Microsoft.Network/virtualNetworks/virtualNetworkPeerings/delete",
        "Microsoft.Network/virtualNetworks/write",
        "Microsoft.Network/virtualNetworkGateways/delete",
        "Microsoft.Network/virtualNetworkGateways/read",
        "Microsoft.Network/virtualNetworkGateways/write",
        "Microsoft.Resources/subscriptions/resourcegroups/*"
    ],
    "NotActions": []
}